^C:\USERS\JOSHUA FUCHS\SOURCE\REPOS\FVTC\C++\WEEK08\MADLIB\LABTWO\DEBUG\MAIN.OBJ
C:\USERS\JOSHUA FUCHS\SOURCE\REPOS\FVTC\C++\WEEK08\MADLIB\DEBUG\LABTWO.EXE
C:\USERS\JOSHUA FUCHS\SOURCE\REPOS\FVTC\C++\WEEK08\MADLIB\DEBUG\LABTWO.ILK
C:\USERS\JOSHUA FUCHS\SOURCE\REPOS\FVTC\C++\WEEK08\MADLIB\DEBUG\LABTWO.PDB
