^C:\USERS\RICK\SOURCE\REPOS\LABTWO\LABTWO\DEBUG\MAIN.OBJ
/OUT:"C:\USERS\RICK\SOURCE\REPOS\LABTWO\DEBUG\LABTWO.EXE" /INCREMENTAL /NOLOGO KERNEL32.LIB USER32.LIB GDI32.LIB WINSPOOL.LIB COMDLG32.LIB ADVAPI32.LIB SHELL32.LIB OLE32.LIB OLEAUT32.LIB UUID.LIB ODBC32.LIB ODBCCP32.LIB /MANIFEST /MANIFESTUAC:"level='asInvoker' uiAccess='false'" /manifest:embed /DEBUG:FASTLINK /PDB:"C:\USERS\RICK\SOURCE\REPOS\LABTWO\DEBUG\LABTWO.PDB" /SUBSYSTEM:CONSOLE /TLBID:1 /DYNAMICBASE /NXCOMPAT /IMPLIB:"C:\USERS\RICK\SOURCE\REPOS\LABTWO\DEBUG\LABTWO.LIB" /MACHINE:X86 DEBUG\MAIN.OBJ
^C:\USERS\JOSHUA FUCHS\SOURCE\REPOS\FVTC\C++\WEEK08\MADLIB\LABTWO\DEBUG\MAIN.OBJ
/OUT:"C:\USERS\JOSHUA FUCHS\SOURCE\REPOS\FVTC\C++\WEEK08\MADLIB\DEBUG\LABTWO.EXE" /INCREMENTAL /NOLOGO KERNEL32.LIB USER32.LIB GDI32.LIB WINSPOOL.LIB COMDLG32.LIB ADVAPI32.LIB SHELL32.LIB OLE32.LIB OLEAUT32.LIB UUID.LIB ODBC32.LIB ODBCCP32.LIB /MANIFEST /MANIFESTUAC:"level='asInvoker' uiAccess='false'" /manifest:embed /DEBUG:FASTLINK /PDB:"C:\USERS\JOSHUA FUCHS\SOURCE\REPOS\FVTC\C++\WEEK08\MADLIB\DEBUG\LABTWO.PDB" /SUBSYSTEM:CONSOLE /TLBID:1 /DYNAMICBASE /NXCOMPAT /IMPLIB:"C:\USERS\JOSHUA FUCHS\SOURCE\REPOS\FVTC\C++\WEEK08\MADLIB\DEBUG\LABTWO.LIB" /MACHINE:X86 DEBUG\MAIN.OBJ
